<svg width="41" height="40" viewBox="0 0 41 40" fill="none" xmlns="http://www.w3.org/2000/svg">
<path d="M40.1515 20C40.1515 27.0904 36.4618 33.319 30.8978 36.8706C27.8109 38.841 24.1471 39.9874 20.2163 39.9999C20.1947 40 20.1731 40 20.1515 40C19.0789 40 18.0262 39.9156 16.9994 39.753C7.4513 38.2414 0.151456 29.9732 0.151456 20C0.151456 8.9543 9.10576 0 20.1515 0C31.1972 0 40.1515 8.9543 40.1515 20Z" fill="white"/>
<path d="M20 39.9765C31.0457 39.9765 40 31.0274 40 19.9882C40 8.94904 31.0457 0 20 0C8.95431 0 0 8.94904 0 19.9882C0 27.0454 3.65946 33.2484 9.18535 36.8051C11.5053 38.2984 14.1542 39.3252 16.9994 39.753C17.9781 39.9002 18.9802 39.9765 20 39.9765Z" fill="white"/>
<path d="M40 19.9882C40 8.95944 31.0353 0 20 0V39.9765C31.0353 39.9765 40 31.0171 40 19.9882Z" fill="white"/>
<path d="M23.0112 25.0204H17.1524V31.4402H23.0112V25.0204Z" fill="white"/>
<path d="M20.07 6.65483C22.9171 6.65483 27.4112 8.2774 27.4112 15.8494C27.4112 20.2233 25.9759 23.0922 25.3641 23.8682C24.7994 24.5972 21.5759 26.1492 20.07 26.1492C20.07 18.5067 20.07 6.65483 20.07 6.65483Z" fill="white"/>
<path d="M28.8228 17.6603C28.9405 16.461 28.3758 15.3793 27.5287 15.2617C26.6817 15.1441 25.9052 16.0377 25.7875 17.237C25.6699 18.4363 26.2346 19.518 27.0817 19.6356C27.9287 19.7532 28.7052 18.8596 28.8228 17.6603Z" fill="white"/>
<path d="M20.07 6.65483C17.223 6.65483 12.7292 8.27745 12.7292 15.8495C12.7292 20.2234 14.1645 23.0923 14.7763 23.8683C15.341 24.5973 18.5641 26.1492 20.07 26.1492C20.07 18.5067 20.07 6.65483 20.07 6.65483Z" fill="white"/>
<path d="M11.3173 17.6603C11.1997 16.461 11.7644 15.3793 12.6114 15.2617C13.4585 15.1441 14.235 16.0377 14.3526 17.237C14.4703 18.4363 13.9056 19.518 13.0585 19.6356C12.235 19.7532 11.435 18.8596 11.3173 17.6603Z" fill="white"/>
<path d="M20.0698 23.3039C21.3875 23.3039 22.4698 22.8571 22.4698 22.3162H17.6698C17.6698 22.8571 18.7522 23.3039 20.0698 23.3039Z" fill="white"/>
<path d="M25.9995 16.4608C26.3054 15.6848 26.9172 15.191 27.5525 15.2616C27.8348 14.368 27.9525 13.2862 27.5525 12.1575C25.4348 6.13751 27.8348 5.05579 27.8348 5.05579C27.8348 5.05579 25.4819 4.96173 23.6701 6.44321C24.9172 4.49142 25.4819 3.99759 25.4819 3.99759C25.4819 3.99759 22.8466 3.43322 20.0231 6.32564C20.6584 4.75009 21.4113 3.97408 21.4113 3.97408C21.4113 3.97408 15.5289 4.02111 13.3878 8.27743C12.1642 10.6995 12.0701 13.3333 12.376 15.3086C12.4466 15.2851 12.5172 15.2616 12.5878 15.2616C12.8701 15.2145 13.1289 15.3086 13.3878 15.4497C13.3878 14.5326 13.3878 13.7095 13.3878 13.5919C14.5172 13.0981 15.7172 12.4632 15.6466 9.97055C18.2819 9.97055 19.7172 9.97055 19.7172 9.97055H23.9054C23.9054 9.97055 23.7172 12.7924 25.976 13.4744C25.9995 14.6502 25.9995 15.6848 25.9995 16.4608Z" fill="white"/>
<path d="M20.0465 31.4638C22.2112 31.4638 23.9759 30.0999 23.9759 28.4303H22.9641C22.9641 29.7001 21.6465 30.7113 20.0465 30.7113C18.423 30.7113 17.1288 29.6766 17.1288 28.4303H16.1171C16.1171 30.1234 17.8583 31.4638 20.0465 31.4638Z" fill="white"/>
<path fill-rule="evenodd" clip-rule="evenodd" d="M23.9525 28.4537H22.9642C22.9642 29.7001 21.6466 30.7348 20.0466 30.7583V39.9999H20.2163C24.1471 39.9874 27.8109 38.841 30.8978 36.8706C30.3982 34.4548 29.6944 31.4294 29.1995 30.8523C27.999 29.4421 26.233 29.0115 24.5426 28.5994C24.3445 28.5511 24.1475 28.5031 23.9525 28.4537Z" fill="white"/>
<path fill-rule="evenodd" clip-rule="evenodd" d="M16.1171 28.4537H17.1053C17.1053 29.7001 18.423 30.7348 20.07 30.7583V39.9999H20.0466C19.0103 39.9946 17.9927 39.9103 16.9994 39.753C14.1542 39.3252 11.5053 38.2984 9.18535 36.8051C9.68407 34.4005 10.3796 31.4242 10.87 30.8523C12.0705 29.4421 13.8366 29.0115 15.527 28.5994C15.7251 28.5511 15.9221 28.5031 16.1171 28.4537Z" fill="white"/>
<g style="mix-blend-mode:hard-light" opacity="0.6">
<mask id="mask0" mask-type="alpha" maskUnits="userSpaceOnUse" x="0" y="0" width="41" height="40">
<circle cx="20.1514" cy="20" r="20" fill="#E5E5E5"/>
</mask>
<g mask="url(#mask0)">
<path d="M20 39.9765C31.0457 39.9765 40 31.0274 40 19.9882C40 8.94904 31.0457 0 20 0C8.95431 0 0 8.94904 0 19.9882C0 31.0274 8.95431 39.9765 20 39.9765Z" fill="#F6A100"/>
<path d="M39.9998 19.9882C39.9998 8.95944 31.0351 0 19.9998 0V39.9765C31.0351 39.9765 39.9998 31.0171 39.9998 19.9882Z" fill="#ED9A00"/>
<path d="M23.0112 25.0205H17.1523V31.4403H23.0112V25.0205Z" fill="#D9A78C"/>
<path d="M22.9643 28.4539H23.9525C25.8113 28.9242 27.8584 29.2769 29.1996 30.8524C30.0466 31.8401 31.5055 40 31.5055 40H27.9525H20.0466V32.5221V30.7584C21.6466 30.7349 22.9643 29.7002 22.9643 28.4539Z" fill="#C74043"/>
<path d="M17.1054 28.4539H16.1171C14.2583 28.9242 12.2113 29.2769 10.8701 30.8524C10.023 31.8401 8.56421 40 8.56421 40H12.1171H20.0701V32.5221V30.7584C18.423 30.7349 17.1054 29.7002 17.1054 28.4539Z" fill="#C74043"/>
<path d="M20.0701 6.65479C22.9171 6.65479 27.4112 8.27736 27.4112 15.8494C27.4112 20.2233 25.976 23.0922 25.3642 23.8682C24.7995 24.5972 21.576 26.1492 20.0701 26.1492C20.0701 18.5066 20.0701 6.65479 20.0701 6.65479Z" fill="#EAC0A7"/>
<path d="M28.823 17.6602C28.9406 16.4609 28.3759 15.3792 27.5289 15.2616C26.6818 15.144 25.9053 16.0376 25.7877 17.2369C25.67 18.4362 26.2348 19.5179 27.0818 19.6355C27.9289 19.7531 28.7053 18.8595 28.823 17.6602Z" fill="#EAC0A7"/>
<path d="M20.0704 6.65479C17.2234 6.65479 12.7292 8.27736 12.7292 15.8494C12.7292 20.2233 14.1645 23.0922 14.7763 23.8682C15.341 24.5972 18.5645 26.1492 20.0704 26.1492C20.0704 18.5066 20.0704 6.65479 20.0704 6.65479Z" fill="#F2D7BC"/>
<path d="M11.3175 17.6602C11.1998 16.4609 11.7645 15.3792 12.6116 15.2616C13.4587 15.144 14.2351 16.0376 14.3528 17.2369C14.4704 18.4362 13.9057 19.5179 13.0587 19.6355C12.2351 19.7531 11.4351 18.8595 11.3175 17.6602Z" fill="#F2D7BC"/>
<path d="M20.0699 23.3038C21.3876 23.3038 22.4699 22.857 22.4699 22.3162H17.6699C17.6699 22.857 18.7523 23.3038 20.0699 23.3038Z" fill="white"/>
<path d="M25.9996 16.4608C26.3055 15.6848 26.9173 15.191 27.5526 15.2616C27.8349 14.368 27.9526 13.2862 27.5526 12.1575C25.4349 6.13751 27.8349 5.05579 27.8349 5.05579C27.8349 5.05579 25.482 4.96173 23.6702 6.44321C24.9173 4.49142 25.482 3.99759 25.482 3.99759C25.482 3.99759 22.8467 3.43322 20.0232 6.32564C20.6585 4.75009 21.4114 3.97408 21.4114 3.97408C21.4114 3.97408 15.5291 4.02111 13.3879 8.27743C12.1644 10.6995 12.0702 13.3333 12.3761 15.3086C12.4467 15.2851 12.5173 15.2616 12.5879 15.2616C12.8702 15.2145 13.1291 15.3086 13.3879 15.4497C13.3879 14.5326 13.3879 13.7095 13.3879 13.5919C14.5173 13.0981 15.7173 12.4632 15.6467 9.97055C18.282 9.97055 19.7173 9.97055 19.7173 9.97055H23.9055C23.9055 9.97055 23.7173 12.7924 25.9761 13.4744C25.9996 14.6502 25.9996 15.6848 25.9996 16.4608Z" fill="#553828"/>
<path d="M20.0466 31.4639C22.2113 31.4639 23.976 30.1 23.976 28.4304H22.9642C22.9642 29.7003 21.6466 30.7114 20.0466 30.7114C18.4231 30.7114 17.129 29.6767 17.129 28.4304H16.1172C16.1172 30.1235 17.8584 31.4639 20.0466 31.4639Z" fill="#0F958C"/>
</g>
</g>
<g style="mix-blend-mode:color">
<path d="M40.1515 20C40.1515 27.0904 36.4618 33.319 30.8978 36.8706C27.8109 38.841 24.1471 39.9874 20.2163 39.9999C20.1947 40 20.1731 40 20.1515 40C19.0789 40 18.0262 39.9156 16.9994 39.753C7.4513 38.2414 0.151456 29.9732 0.151456 20C0.151456 8.9543 9.10576 0 20.1515 0C31.1972 0 40.1515 8.9543 40.1515 20Z" fill="white"/>
<path d="M20 39.9765C31.0457 39.9765 40 31.0274 40 19.9882C40 8.94904 31.0457 0 20 0C8.95431 0 0 8.94904 0 19.9882C0 27.0454 3.65946 33.2484 9.18535 36.8051C11.5053 38.2984 14.1542 39.3252 16.9994 39.753C17.9781 39.9002 18.9802 39.9765 20 39.9765Z" fill="white"/>
<path d="M40 19.9882C40 8.95944 31.0353 0 20 0V39.9765C31.0353 39.9765 40 31.0171 40 19.9882Z" fill="white"/>
<path d="M23.0112 25.0204H17.1524V31.4402H23.0112V25.0204Z" fill="white"/>
<path d="M20.07 6.65483C22.9171 6.65483 27.4112 8.2774 27.4112 15.8494C27.4112 20.2233 25.9759 23.0922 25.3641 23.8682C24.7994 24.5972 21.5759 26.1492 20.07 26.1492C20.07 18.5067 20.07 6.65483 20.07 6.65483Z" fill="white"/>
<path d="M28.8228 17.6603C28.9405 16.461 28.3758 15.3793 27.5287 15.2617C26.6817 15.1441 25.9052 16.0377 25.7875 17.237C25.6699 18.4363 26.2346 19.518 27.0817 19.6356C27.9287 19.7532 28.7052 18.8596 28.8228 17.6603Z" fill="white"/>
<path d="M20.07 6.65483C17.223 6.65483 12.7292 8.27745 12.7292 15.8495C12.7292 20.2234 14.1645 23.0923 14.7763 23.8683C15.341 24.5973 18.5641 26.1492 20.07 26.1492C20.07 18.5067 20.07 6.65483 20.07 6.65483Z" fill="white"/>
<path d="M11.3173 17.6603C11.1997 16.461 11.7644 15.3793 12.6114 15.2617C13.4585 15.1441 14.235 16.0377 14.3526 17.237C14.4703 18.4363 13.9056 19.518 13.0585 19.6356C12.235 19.7532 11.435 18.8596 11.3173 17.6603Z" fill="white"/>
<path d="M20.0698 23.3039C21.3875 23.3039 22.4698 22.8571 22.4698 22.3162H17.6698C17.6698 22.8571 18.7522 23.3039 20.0698 23.3039Z" fill="white"/>
<path d="M25.9995 16.4608C26.3054 15.6848 26.9172 15.191 27.5525 15.2616C27.8348 14.368 27.9525 13.2862 27.5525 12.1575C25.4348 6.13751 27.8348 5.05579 27.8348 5.05579C27.8348 5.05579 25.4819 4.96173 23.6701 6.44321C24.9172 4.49142 25.4819 3.99759 25.4819 3.99759C25.4819 3.99759 22.8466 3.43322 20.0231 6.32564C20.6584 4.75009 21.4113 3.97408 21.4113 3.97408C21.4113 3.97408 15.5289 4.02111 13.3878 8.27743C12.1642 10.6995 12.0701 13.3333 12.376 15.3086C12.4466 15.2851 12.5172 15.2616 12.5878 15.2616C12.8701 15.2145 13.1289 15.3086 13.3878 15.4497C13.3878 14.5326 13.3878 13.7095 13.3878 13.5919C14.5172 13.0981 15.7172 12.4632 15.6466 9.97055C18.2819 9.97055 19.7172 9.97055 19.7172 9.97055H23.9054C23.9054 9.97055 23.7172 12.7924 25.976 13.4744C25.9995 14.6502 25.9995 15.6848 25.9995 16.4608Z" fill="white"/>
<path d="M20.0465 31.4638C22.2112 31.4638 23.9759 30.0999 23.9759 28.4303H22.9641C22.9641 29.7001 21.6465 30.7113 20.0465 30.7113C18.423 30.7113 17.1288 29.6766 17.1288 28.4303H16.1171C16.1171 30.1234 17.8583 31.4638 20.0465 31.4638Z" fill="white"/>
<path fill-rule="evenodd" clip-rule="evenodd" d="M23.9525 28.4537H22.9642C22.9642 29.7001 21.6466 30.7348 20.0466 30.7583V39.9999H20.2163C24.1471 39.9874 27.8109 38.841 30.8978 36.8706C30.3982 34.4548 29.6944 31.4294 29.1995 30.8523C27.999 29.4421 26.233 29.0115 24.5426 28.5994C24.3445 28.5511 24.1475 28.5031 23.9525 28.4537Z" fill="white"/>
<path fill-rule="evenodd" clip-rule="evenodd" d="M16.1171 28.4537H17.1053C17.1053 29.7001 18.423 30.7348 20.07 30.7583V39.9999H20.0466C19.0103 39.9946 17.9927 39.9103 16.9994 39.753C14.1542 39.3252 11.5053 38.2984 9.18535 36.8051C9.68407 34.4005 10.3796 31.4242 10.87 30.8523C12.0705 29.4421 13.8366 29.0115 15.527 28.5994C15.7251 28.5511 15.9221 28.5031 16.1171 28.4537Z" fill="white"/>
</g>
</svg>
