<svg width="40" height="40" viewBox="0 0 40 40" fill="none" xmlns="http://www.w3.org/2000/svg">
<path fill-rule="evenodd" clip-rule="evenodd" d="M20 38C29.9411 38 38 29.9411 38 20C38 10.0589 29.9411 2 20 2C10.0589 2 2 10.0589 2 20C2 29.9411 10.0589 38 20 38ZM20 40C31.0457 40 40 31.0457 40 20C40 8.9543 31.0457 0 20 0C8.9543 0 0 8.9543 0 20C0 31.0457 8.9543 40 20 40ZM20 18C21.6569 18 23 16.6569 23 15C23 13.3431 21.6569 12 20 12C18.3431 12 17 13.3431 17 15C17 16.6569 18.3431 18 20 18ZM22.476 19.3449C23.9837 18.4838 25 16.8606 25 15C25 12.2386 22.7614 10 20 10C17.2386 10 15 12.2386 15 15C15 16.8606 16.0163 18.4838 17.524 19.3449C13.7574 20.4204 11 23.8882 11 28H13C13 24.134 16.134 21 20 21C23.866 21 27 24.134 27 28H29C29 23.8882 26.2426 20.4204 22.476 19.3449Z" fill="#4F4E5D"/>
</svg>
