<svg width="10" height="10" viewBox="0 0 10 10" fill="none" xmlns="http://www.w3.org/2000/svg">
    <path fill-rule="evenodd" clip-rule="evenodd" d="M8.74997 3.7503L4.99987 0.000180561L3.74989 1.25017L7.49997 5.00027L3.75 8.75018L5.00001 10.0002L10 5.00022L8.75004 3.75023L8.74997 3.7503Z" style="fill:#F3B63B"/>
    <mask id="mask0" mask-type="alpha" maskUnits="userSpaceOnUse" x="3" y="0" width="8" height="11">
        <path fill-rule="evenodd" clip-rule="evenodd" d="M8.74997 3.7503L4.99987 0.000180561L3.74989 1.25017L7.49997 5.00027L3.75 8.75018L5.00001 10.0002L10 5.00022L8.75004 3.75023L8.74997 3.7503Z" fill="white"/>
    </mask>
    <g mask="url(#mask0)">
        <rect x="-10.5254" y="17.0001" width="21.2131" height="21.2129" transform="rotate(-90 -10.5254 17.0001)" style="fill:#F3B63B"/>
    </g>
</svg>
