<svg width="40" height="40" viewBox="0 0 40 40" fill="none" xmlns="http://www.w3.org/2000/svg">
<mask id="mask0" mask-type="alpha" maskUnits="userSpaceOnUse" x="0" y="0" width="40" height="40">
<circle cx="20" cy="20" r="20" fill="#E5E5E5"/>
</mask>
<g mask="url(#mask0)">
<path d="M19.8489 39.6654C30.8946 39.6654 39.8489 30.7111 39.8489 19.6654C39.8489 8.61971 30.8946 -0.334595 19.8489 -0.334595C8.80318 -0.334595 -0.151123 8.61971 -0.151123 19.6654C-0.151123 30.7111 8.80318 39.6654 19.8489 39.6654Z" fill="#F6A100"/>
<path d="M39.8484 19.6647C39.8484 8.62938 30.8837 -0.335327 19.8484 -0.335327V39.6647C30.8837 39.6647 39.8484 30.7 39.8484 19.6647Z" fill="#ED9A00"/>
<path d="M22.789 24.6998H16.9302V31.1234H22.789V24.6998Z" fill="#D9A78C"/>
<path d="M16.2002 28.5352C16.2002 28.5352 10.6237 29.3587 9.80021 30.2057C9.09433 30.9587 7.58844 38.0881 7.25903 39.6646C17.0473 39.6646 19.8473 39.6646 19.8473 39.6646V28.841L16.2002 28.5352Z" fill="#C0D0D8"/>
<path d="M23.4942 28.5352C23.4942 28.5352 29.0707 29.3587 29.8942 30.2057C30.6001 30.9587 32.106 38.0881 32.4354 39.6646C22.6472 39.6646 19.8472 39.6646 19.8472 39.6646V28.841L23.4942 28.5352Z" fill="#A7BDC8"/>
<path d="M19.4707 29.8999L18.7178 37.5234L19.8472 39.6411L20.9766 37.5234L20.2237 29.8999H19.4707Z" fill="#14A89A"/>
<path d="M20.8358 29.8292L19.8476 30.8174L18.8594 29.8292L19.8476 28.8409L20.8358 29.8292Z" fill="#14A89A"/>
<path d="M19.8472 6.32336C22.6942 6.32336 27.1883 7.94689 27.1883 15.5234C27.1883 19.8998 25.7531 22.7704 25.1413 23.5469C24.5766 24.2763 21.3531 25.8292 19.8472 25.8292C19.8472 18.1822 19.8472 6.32336 19.8472 6.32336Z" fill="#EAC0A7"/>
<path d="M28.5989 17.3352C28.7165 16.1352 28.1518 15.0529 27.3048 14.9352C26.4577 14.8176 25.6812 15.7117 25.5636 16.9117C25.4459 18.1117 26.0106 19.194 26.8577 19.3117C27.7048 19.4293 28.4812 18.5352 28.5989 17.3352Z" fill="#EAC0A7"/>
<path d="M19.8468 6.32349C16.9997 6.32349 12.5056 7.94702 12.5056 15.5235C12.5056 19.9 13.9409 22.7705 14.5527 23.547C15.1174 24.2764 18.3409 25.8294 19.8468 25.8294C19.8468 18.1823 19.8468 6.32349 19.8468 6.32349Z" fill="#F2D7BC"/>
<path d="M11.0943 17.3352C10.9767 16.1352 11.5414 15.0529 12.3885 14.9352C13.2355 14.8176 14.012 15.7117 14.1296 16.9117C14.2473 18.1117 13.6826 19.194 12.8355 19.3117C11.9885 19.4293 11.212 18.5352 11.0943 17.3352Z" fill="#F2D7BC"/>
<path d="M19.847 28.8411L16.8823 27.6411L16.1294 28.3941L17.6117 31.6646L19.847 28.8411Z" fill="white"/>
<path d="M19.8472 28.8411L22.8119 27.6411L23.5648 28.3941L22.0825 31.6646L19.8472 28.8411Z" fill="white"/>
<path d="M17.1178 36.394H13.4001V37.2176H17.1178V36.394Z" fill="#7F97A3"/>
<path d="M26.2938 36.394H22.5762V37.2176H26.2938V36.394Z" fill="#7F97A3"/>
<path d="M13.4952 17.4529H14.0128C14.0128 17.4529 13.7069 15.4764 14.601 14.8411C14.601 13.8529 14.601 13.5705 14.601 13.5705C14.601 13.5705 14.2481 13.5234 14.2481 12.0411C14.2481 10.5352 16.0363 9.47639 19.8481 9.47639C19.8481 7.33521 19.8481 4.86462 19.8481 4.86462C19.8481 4.86462 12.2952 5.68815 12.2952 11.1705C12.2952 13.4529 12.2952 14.9352 12.2952 14.9352C12.2952 14.9352 12.8363 14.8411 13.2363 15.1705C13.6599 15.5234 13.4952 17.4529 13.4952 17.4529Z" fill="#8B5F3C"/>
<path d="M26.1291 17.4529H25.6114C25.6114 17.4529 25.9173 15.4764 25.0232 14.8411C25.0232 13.8529 25.0232 13.5705 25.0232 13.5705C25.0232 13.5705 25.3761 13.5234 25.3761 12.0411C25.3761 10.5352 23.5879 9.47639 19.7761 9.47639C19.7761 7.33521 19.7761 4.86462 19.7761 4.86462C19.7761 4.86462 27.3291 5.68815 27.3291 11.1705C27.3291 13.4529 27.3291 14.9352 27.3291 14.9352C27.3291 14.9352 26.7879 14.8411 26.3879 15.1705C25.9644 15.5234 26.1291 17.4529 26.1291 17.4529Z" fill="#8B5F3C"/>
<path d="M19.8475 22.5822C21.1652 22.5822 22.2475 22.1352 22.2475 21.594H17.4475C17.4475 22.1352 18.5299 22.5822 19.8475 22.5822Z" fill="white"/>
</g>
</svg>
